…
It is interesting that cereal\_yield and tractors have a max number of rows per country of approximately 50 while fertilzier and irrigation ahve approx 16.

``` r
cereal_yield_red %>% 
  group_by(country) %>% 
  summarise(n=n()) %>% 
  arrange(desc(n))
```

    ## # A tibble: 227 x 2
    ##    country          n
    ##    <chr>        <int>
    ##  1 Afghanistan     57
    ##  2 Albania         57
    ##  3 Algeria         57
    ##  4 Angola          57
    ##  5 Arab World      57
    ##  6 Argentina       57
    ##  7 Australia       57
    ##  8 Austria         57
    ##  9 Bahamas, The    57
    ## 10 Bangladesh      57
    ## # ... with 217 more rows
…
