…
    ## Parsed with column specification:
    ## cols(
    ##   .default = col_character(),
    ##   CountryID = col_integer()
    ## )

    ## See spec(...) for full column specifications.

``` r
df
```

    ## # A tibble: 186 x 34
    ##    CountryID `Country Name` WEBNAME Region `World Rank` `Region Rank`
    ##        <int> <chr>          <chr>   <chr>  <chr>        <chr>        
    ##  1         1 Afghanistan    Afghan… Asia-… 152          39           
    ##  2         2 Albania        Albania Europe 52           27           
    ##  3         3 Algeria        Algeria Middl… 171          14           
    ##  4         4 Angola         Angola  Sub-S… 156          33           
    ##  5         5 Argentina      Argent… Ameri… 148          26           
    ##  6         6 Armenia        Armenia Europe 47           24           
    ##  7         7 Australia      Austra… Asia-… 5            4            
    ##  8         8 Austria        Austria Europe 31           16           
    ##  9         9 Azerbaijan     Azerba… Asia-… 60           13           
    ## 10        10 Bahamas        Bahamas Ameri… 76           15           
    ## # ... with 176 more rows, and 28 more variables: `2019 Score` <chr>,
    ## #   `Property Rights` <chr>, `Judical Effectiveness` <chr>, `Government
    ## #   Integrity` <chr>, `Tax Burden` <chr>, `Gov't Spending` <chr>, `Fiscal
    ## #   Health` <chr>, `Business Freedom` <chr>, `Labor Freedom` <chr>,
    ## #   `Monetary Freedom` <chr>, `Trade Freedom` <chr>, `Investment
    ## #   Freedom` <chr>, `Financial Freedom` <chr>, `Tariff Rate (%)` <chr>,
    ## #   `Income Tax Rate (%)` <chr>, `Corporate Tax Rate (%)` <chr>, `Tax
    ## #   Burden % of GDP` <chr>, `Gov't Expenditure % of GDP` <chr>,
    ## #   Country <chr>, `Population (Millions)` <chr>, `GDP (Billions,
…
data_list <- name_list %>% map(extract_economic_freedom_year)
```

    ## Warning: package 'bindrcpp' was built under R version 3.4.4

``` r
economic_freedom <- data_list %>% bind_rows()
#spaces in column names causes trouble so we will replace these with underscores
#we will be joining this data set with other datasets so it makes sense to 
#add a label indicating the source dataset here.
names(economic_freedom) <- str_c("efi_",names(economic_freedom) %>% str_replace(" ","_"))
economic_freedom
```

    ## # A tibble: 4,598 x 15
    ##    efi_name efi_index_year efi_overall_sco… efi_property_ri…
    ##    <chr>             <dbl>            <dbl>            <dbl>
    ##  1 Afghani…           1995             NA                 NA
    ##  2 Albania            1995             49.7               50
    ##  3 Algeria            1995             55.7               50
    ##  4 Angola             1995             27.4               30
    ##  5 Argenti…           1995             68                 70
    ##  6 Armenia            1995             NA                 NA
    ##  7 Austral…           1995             74.1               90
    ##  8 Austria            1995             70                 90
    ##  9 Azerbai…           1995             NA                 NA
    ## 10 Bahrain            1995             76.2               60
    ## # ... with 4,588 more rows, and 11 more variables:
    ## #   efi_government_integrity <dbl>, efi_judicial_effectiveness <dbl>,
    ## #   efi_tax_burden <dbl>, efi_government_spending <dbl>,
    ## #   efi_fiscal_health <dbl>, efi_business_freedom <dbl>,
    ## #   efi_labor_freedom <dbl>, efi_monetary_freedom <dbl>,
    ## #   efi_trade_freedom <dbl>, efi_investment_freedom <dbl>,
    ## #   efi_financial_freedom <dbl>
…
